…
 First we will import the file and take a look at it to see if it needs to be re-arranged or pre-processed in any way.

```r
unzip("activity.zip",exdir=getwd())

library(readr)

stepdata <- read_csv("activity.csv")

stepdata
```

```
## # A tibble: 17,568 × 3
##    steps       date interval
##    <int>     <date>    <int>
## 1     NA 2012-10-01        0
## 2     NA 2012-10-01        5
## 3     NA 2012-10-01       10
## 4     NA 2012-10-01       15
## 5     NA 2012-10-01       20
## 6     NA 2012-10-01       25
## 7     NA 2012-10-01       30
## 8     NA 2012-10-01       35
## 9     NA 2012-10-01       40
## 10    NA 2012-10-01       45
## # ... with 17,558 more rows
```
…
na.indices = is.na(stepdata$steps)

na.replaced <- na.replacer(stepdata, na.indices)

rm(na.indices)

na.replaced
```

```
## # A tibble: 17,568 × 3
##    steps       date interval
##    <int>     <date>    <int>
## 1      0 2012-10-01        0
## 2      0 2012-10-01        5
## 3      0 2012-10-01       10
## 4      0 2012-10-01       15
## 5      0 2012-10-01       20
## 6      0 2012-10-01       25
## 7      0 2012-10-01       30
## 8      0 2012-10-01       35
## 9      0 2012-10-01       40
## 10     0 2012-10-01       45
## # ... with 17,558 more rows
```
…
